	time_learned	time_total	random_seed	problem_id	time_transformed	score	bags	n_gaussians	distance	metric	only_transformed	class_balance_ratio	subsample_number	ml_model	n_neighbors
0	-1.085923433303833	30.25480890274048	1	dataset_no_categories	23.087658166885376	0.6245554132878076	1	1	[1]	f1_score	False	1.0	100000	xgboost	12
1	-0.7489538192749023	28.44432711601257	3	dataset_no_categories	22.298330545425415	0.6696182751692834	1	1	[1]	f1_score	False	1.0	100000	xgboost	12
2	-0.7286727428436279	27.86785888671875	2	dataset_no_categories	22.005733489990234	0.5918937805730258	1	1	[1]	f1_score	False	1.0	100000	xgboost	12
3	-0.7084269523620605	32.90009546279907	4	dataset_no_categories	25.740740299224854	0.6227763196267133	1	1	[1]	f1_score	False	1.0	100000	xgboost	12
4	-0.7327339649200441	26.719327926635746	0	dataset_no_categories	21.07883358001709	0.6198427008944458	1	1	[1]	f1_score	False	1.0	100000	xgboost	12
5	-0.1754608154296875	27.90311145782471	0	dataset_no_categories	22.360167741775516	0.6854424496696125	1	1	[1]	f1_score	True	1.0	100000	xgboost	12
6	-0.14258933067321775	26.12958121299744	2	dataset_no_categories	20.802330732345574	0.6653127811835146	1	1	[1]	f1_score	True	1.0	100000	xgboost	12
7	-0.1676623821258545	26.2452392578125	4	dataset_no_categories	21.1128511428833	0.6560132609355885	1	1	[1]	f1_score	True	1.0	100000	xgboost	12
8	-0.13021159172058105	28.503348112106323	1	dataset_no_categories	22.74167037010193	0.7060248046880266	1	1	[1]	f1_score	True	1.0	100000	xgboost	12
9	-0.49167513847351074	27.04581046104431	3	dataset_no_categories	21.622925996780396	0.677889668734954	1	1	[1]	f1_score	True	1.0	100000	xgboost	12
