	score	class_balance_ratio	ml_model	random_seed	subsample_number	metric	problem_id
0	0.8538572087241861	1.0	lg	1	100000	f1_score	dataset_no_count
1	0.8496726203732573	1.0	lg	2	100000	f1_score	dataset_no_count
2	0.8349225052872042	1.0	lg	3	100000	f1_score	dataset_no_count
3	0.8407614794169416	1.0	lg	0	100000	f1_score	dataset_no_count
