	random_seed	ml_model	score	metric	class_balance_ratio	time_total	problem_id	subsample_number
0	0	lg	0.7949156569256356	f1_score	5.0	0.0	order_fraud_ml_norm	20000
1	0	lg	0.7826989619377163	f1_score	10.0	0.0	order_fraud_ml_norm	10000
2	0	lg	0.6281800391389433	f1_score	25.0	0.0	order_fraud_ml_norm	4000
3	1	lg	0.8705011319831122	f1_score	1.0	0.0	order_fraud_ml_norm	100000
4	0	lg	0.8065711462450593	f1_score	50.0	0.0	order_fraud_ml_norm	2000
5	1	lg	0.7893976599739998	f1_score	10.0	0.0	order_fraud_ml_norm	10000
6	1	lg	0.6788065315892964	f1_score	25.0	0.0	order_fraud_ml_norm	4000
7	2	lg	0.8449360163645878	f1_score	1.0	0.0	order_fraud_ml_norm	100000
8	1	lg	0.6352813852813853	f1_score	50.0	0.0	order_fraud_ml_norm	2000
9	0	lg	0.8483455882352942	f1_score	1.0	0.0	order_fraud_ml_norm	100000
10	2	lg	0.8209148187546027	f1_score	5.0	0.0	order_fraud_ml_norm	20000
11	1	lg	0.7866625310173697	f1_score	5.0	0.0	order_fraud_ml_norm	20000
12	2	lg	0.7851403809695767	f1_score	10.0	0.0	order_fraud_ml_norm	10000
13	2	lg	0.6202830188679246	f1_score	50.0	0.0	order_fraud_ml_norm	2000
14	3	lg	0.7931868464085969	f1_score	5.0	0.0	order_fraud_ml_norm	20000
15	3	lg	0.729559748427673	f1_score	10.0	0.0	order_fraud_ml_norm	10000
16	3	lg	0.8597658862876254	f1_score	1.0	0.0	order_fraud_ml_norm	100000
17	4	lg	0.7898007569175489	f1_score	5.0	0.0	order_fraud_ml_norm	20000
18	4	lg	0.8262061403508771	f1_score	10.0	0.0	order_fraud_ml_norm	10000
19	4	lg	0.5686023507506109	f1_score	50.0	0.0	order_fraud_ml_norm	2000
20	3	lg	0.7320634920634921	f1_score	25.0	0.0	order_fraud_ml_norm	4000
21	4	lg	0.6960526315789474	f1_score	25.0	0.0	order_fraud_ml_norm	4000
22	4	lg	0.8477500301604536	f1_score	1.0	0.0	order_fraud_ml_norm	100000
23	3	lg	0.6782062107139506	f1_score	50.0	0.0	order_fraud_ml_norm	2000
